Exploring Forest Fires with Metereological Data
…
Data cleaning

Order months

forest_dat <- forest_data %>%
        mutate(month_numeric = match(month, str_to_lower(month.abb))) %>%
        arrange(month_numeric) %>%
        mutate(month = as_factor(month))
forest_dat

## # A tibble: 517 x 14
##        X     Y  month   day  FFMC   DMC    DC   ISI  temp    RH  wind
##    <int> <int> <fctr> <chr> <dbl> <dbl> <dbl> <dbl> <dbl> <int> <dbl>
##  1     2     4    jan   sat  82.1   3.7   9.3   2.9   5.3    78   3.1
##  2     4     5    jan   sun  18.7   1.1 171.4   0.0   5.2   100   0.9
##  3     2     2    feb   mon  84.0   9.3  34.0   2.1  13.9    40   5.4
##  4     2     2    feb   fri  86.6  13.2  43.0   5.3  12.3    51   0.9
##  5     9     9    feb   thu  84.2   6.8  26.6   7.7   6.7    79   3.1
##  6     9     9    feb   fri  86.6  13.2  43.0   5.3  15.7    43   3.1
##  7     3     4    feb   sat  83.9   8.0  30.2   2.6  12.7    48   1.8
##  8     4     6    feb   sat  68.2  21.5  87.2   0.8  15.4    40   2.7
##  9     5     4    feb   sun  86.8  15.6  48.3   3.9  12.4    53   2.2
## 10     7     4    feb   sun  83.9   8.7  32.1   2.1   8.8    68   2.2
## # ... with 507 more rows, and 3 more variables: rain <dbl>, area <dbl>,
## #   month_numeric <int>
…
